{
    "type": "01020309",
    "val1": 0,
    "val2": 0,
    "val3": 47,
    "batt": 871,
    "name": "Patong4_node4",
    "mac1": "5ccf7f0950b3",
    "mac2": "5ecf7f09520e",
    "_time": 1528354975163,
    "distance_cm": 47,
    "battery_raw": 871,
    "pretty_time": "2018-06-07T14:02:55+07:00"
}