{
    "type": "01020309",
    "val1": 0,
    "val2": 0,
    "val3": 35,
    "batt": 953,
    "name": "Patong1_node1",
    "mac1": "5ccf7f094e69",
    "mac2": "1afe34daf20a",
    "_time": 1528384322475,
    "distance_cm": 35,
    "battery_raw": 953,
    "pretty_time": "2018-06-07T22:12:02+07:00"
}