{
    "type": "01020309",
    "val1": 0,
    "val2": 0,
    "val3": 26,
    "batt": 950,
    "name": "Patong2_node4",
    "mac1": "18fe34eecd4f",
    "mac2": "5ecf7f099c73",
    "_time": 1528367220370,
    "distance_cm": 26,
    "battery_raw": 950,
    "pretty_time": "2018-06-07T17:27:00+07:00"
}