{
    "batt": 422,
    "mac1": "5ccf7f094e77",
    "mac2": "ffffffffffff",
    "gpsString": "07.8895901N,098.2928632E,20.,23",
    "_time": 1528383547377,
    "temperature_c": 0,
    "sound_db_avg": 39.89,
    "humidity_percent_rh": 0,
    "pressure_hPa": 0,
    "battery_raw": 422,
    "pretty_time": "2018-06-07T21:59:07+07:00"
}